%YAML 1.1
%TAG !u! tag:unity3d.com,2011:
--- !u!1045 &1
EditorBuildSettings:
  m_ObjectHideFlags: 0
  serializedVersion: 2
  m_Scenes:
  - enabled: 1
    path: Assets/Scenes/SampleScene.unity
    guid: 99c9720ab356a0642a771bea13969a05
  - enabled: 1
    path: Assets/Scenes/StartMenu.unity
    guid: 65e448593f0e21f4dbdae0610b8c2381
  - enabled: 1
    path: Assets/Scenes/HowToPlay.unity
    guid: e2f48e71012733a4e8472020fc94599f
  - enabled: 1
    path: Assets/Scenes/Jorge_Test.unity
    guid: 8681c2d2e8947a342ab6901ffc1af1b7
  - enabled: 1
    path: Assets/Scenes/LevelSelect.unity
    guid: e4d75887e1a7c7a4988dd88c44568afb
  m_configObjects: {}
